{
  "animals": [
    {
      "id": 1,
      "name": "lion",
      "imagesPaths": [
        "assets/images/animals/africa/lion.png"
      ],
      "group": "africa",
      "videoPath": "https://player.vimeo.com/external/461856844.sd.mp4?s=95633e3aad437fd9fb8b0217c8f5ba9a72807455&profile_id=165&oauth2_token_id=57447761",
      "sound": "assets/sounds/animals/africa/lion.mp3",
      "pronounceSound": ""
    },
    {
      "id": 2,
      "name": "hippopotamus",
      "imagesPaths": [
        "assets/images/animals/africa/hippopotamus.png"
      ],
      "group": "africa",
      "videoPath": "https://player.vimeo.com/external/453972330.sd.mp4?s=dab1620ddd9f5002977a30eaba58569721ef31dd&profile_id=164&oauth2_token_id=57447761"
    },
    {
      "id": 3,
      "name": "african-elephant",
      "imagesPaths": [
        "assets/images/animals/africa/african-elephant.png"
      ],
      "group": "africa"
    },
    {
      "id": 4,
      "name": "zebra",
      "imagesPaths": [
        "assets/images/animals/africa/zebra.png"
      ],
      "group": "africa"
    },
    {
      "id": 5,
      "name": "rhino",
      "imagesPaths": [
        "assets/images/animals/africa/rhino.png"
      ],
      "group": "africa"
    },
    {
      "id": 6,
      "name": "gnu",
      "imagesPaths": [
        "assets/images/animals/africa/gnu.png"
      ],
      "group": "africa"
    },
    {
      "id": 7,
      "name": "gorilla",
      "imagesPaths": [
        "assets/images/animals/africa/gorilla.png"
      ],
      "group": "africa"
    },
    {
      "id": 8,
      "name": "chimpanzee",
      "imagesPaths": [
        "assets/images/animals/africa/chimpanzee.png"
      ],
      "group": "africa"
    },
    {
      "id": 9,
      "name": "two-humped-camel",
      "imagesPaths": [
        "assets/images/animals/africa/two-humped-camel.png"
      ],
      "group": "africa"
    },
    {
      "id": 10,
      "name": "chita",
      "imagesPaths": [
        "assets/images/animals/africa/chita.png"
      ],
      "group": "africa"
    },
    {
      "id": 11,
      "name": "vulture",
      "imagesPaths": [
        "assets/images/animals/africa/vulture.png"
      ],
      "group": "africa"
    },
    {
      "id": 12,
      "name": "tiger",
      "imagesPaths": [
        "assets/images/animals/africa/tiger.png"
      ],
      "group": "africa"
    },
    {
      "id": 13,
      "name": "crocodile",
      "imagesPaths": [
        "assets/images/animals/africa/crocodile.png"
      ],
      "group": "africa"
    },
    {
      "id": 14,
      "name": "ostrich",
      "imagesPaths": [
        "assets/images/animals/africa/ostrich.png"
      ],
      "group": "africa"
    },
    {
      "id": 15,
      "name": "mongoose",
      "imagesPaths": [
        "assets/images/animals/africa/mongoose.png"
      ],
      "group": "africa"
    },
    {
      "id": 16,
      "name": "alligator",
      "imagesPaths": [
        "assets/images/animals/africa/alligator.png"
      ],
      "group": "africa"
    },
    {
      "id": 17,
      "name": "lemur",
      "imagesPaths": [
        "assets/images/animals/africa/lemur.png"
      ],
      "group": "africa"
    },
    {
      "id": 18,
      "name": "one-humped-camel",
      "imagesPaths": [
        "assets/images/animals/africa/one-humped-camel.png"
      ],
      "group": "africa"
    },
    {
      "id": 19,
      "name": "giraffe",
      "imagesPaths": [
        "assets/images/animals/africa/giraffe.png"
      ],
      "group": "africa"
    },
    {
      "id": 20,
      "name": "gazelle",
      "imagesPaths": [
        "assets/images/animals/africa/gazelle.png"
      ],
      "group": "africa"
    },
    {
      "id": 21,
      "name": "warthog",
      "imagesPaths": [
        "assets/images/animals/africa/warthog.png"
      ],
      "group": "africa"
    },
    {
      "id": 22,
      "name": "flamingo",
      "imagesPaths": [
        "assets/images/animals/africa/flamingo.png"
      ],
      "group": "africa"
    },
    {
      "id": 23,
      "name": "hyena",
      "imagesPaths": [
        "assets/images/animals/africa/hyena.png"
      ],
      "group": "africa"
    },
    {
      "id": 24,
      "name": "african-wild-dog",
      "imagesPaths": [
        "assets/images/animals/africa/african-wild-dog.png"
      ],
      "group": "africa"
    },
    {
      "id": 25,
      "name": "panda",
      "imagesPaths": [
        "assets/images/animals/asia/panda.png"
      ],
      "group": "asia"
    },
    {
      "id": 26,
      "name": "test12",
      "group": "africa",
      "imagesPaths": [
        "assets/images/animals/africa/test123.ong"
      ],
      "videoPath": null,
      "animalSound": null,
      "animalProperties": []
    },
    {
      "id": 27,
      "name": "ant",
      "group": "bugs",
      "imagesPaths": [
        "assets/images/animals/bugs/ant.png"
      ],
      "videoPath": null,
      "animalSound": null,
      "animalProperties": []
    }
  ],
  "en": [],
  "sr-lat": [],
  "sr-cir": []
}